<?xml version="1.0" standalone="no"?>
<!DOCTYPE svg PUBLIC "-//W3C//DTD SVG 20010904//EN"
 "http://www.w3.org/TR/2001/REC-SVG-20010904/DTD/svg10.dtd">
<svg version="1.0" xmlns="http://www.w3.org/2000/svg"
 width="700.000000pt" height="700.000000pt" viewBox="0 0 700.000000 700.000000"
 preserveAspectRatio="xMidYMid meet">
<metadata>
Created by potrace 1.11, written by Peter Selinger 2001-2013
</metadata>
<g transform="translate(0.000000,700.000000) scale(0.100000,-0.100000)"
fill="#000000" stroke="none">
<path d="M3218 6995 c-2 -2 -64 -6 -138 -9 -74 -4 -148 -8 -165 -11 -16 -2
-59 -6 -95 -9 -159 -15 -392 -52 -538 -86 -121 -28 -112 -26 -198 -50 -298
-84 -606 -218 -806 -351 -33 -21 -64 -39 -69 -39 -5 0 -9 -4 -9 -8 0 -4 -15
-16 -33 -27 -17 -10 -34 -21 -37 -24 -3 -3 -39 -33 -80 -65 -105 -83 -292
-273 -380 -386 -236 -306 -401 -653 -514 -1081 -35 -134 -79 -349 -91 -444 -4
-27 -10 -77 -15 -110 -5 -33 -12 -87 -15 -120 -3 -33 -8 -79 -11 -103 -26
-250 -25 -876 2 -1157 13 -140 32 -282 49 -380 8 -44 17 -93 19 -110 70 -410
238 -853 445 -1170 131 -202 366 -463 526 -585 222 -169 440 -293 686 -389
227 -89 421 -141 758 -206 21 -4 59 -9 213 -30 18 -3 62 -7 98 -10 36 -4 79
-8 95 -10 186 -26 913 -26 1170 0 28 3 75 7 105 10 30 3 69 8 85 10 17 3 50 7
75 10 25 2 56 7 70 9 14 3 57 10 95 16 39 6 86 15 105 20 19 5 51 11 70 14 42
7 191 45 311 80 135 40 343 122 474 188 66 34 130 66 142 72 13 6 23 14 23 19
0 4 5 7 12 7 16 0 187 115 278 187 184 146 375 353 504 547 78 117 95 145 158
266 65 121 189 424 203 496 3 11 13 48 24 81 19 61 86 341 95 403 3 19 8 46
11 60 3 14 7 43 10 65 11 83 17 131 21 149 2 10 6 51 10 90 3 39 7 82 9 95 26
163 26 967 1 1161 -2 14 -7 57 -10 95 -3 39 -8 80 -10 90 -2 11 -7 43 -10 70
-4 28 -11 75 -16 105 -5 30 -12 71 -15 90 -58 360 -213 810 -371 1077 -24 41
-44 76 -44 78 0 7 -111 168 -171 246 -76 101 -275 303 -379 385 -98 79 -235
174 -249 174 -6 0 -11 5 -11 10 0 6 -5 10 -11 10 -6 0 -23 8 -37 19 -56 39
-351 181 -376 181 -6 0 -16 4 -22 9 -15 15 -269 97 -399 130 -125 31 -338 75
-415 86 -25 3 -79 10 -120 16 -98 13 -128 16 -235 24 -49 4 -108 9 -130 11
-45 5 -723 13 -727 9z m1424 -1595 l572 -571 -571 -571 -572 -572 -283 283
-283 283 -3 -794 c-1 -436 0 -798 2 -803 3 -8 254 -11 801 -10 520 0 799 -3
804 -10 4 -5 7 -368 6 -805 l-1 -795 -806 -3 -807 -2 -808 808 -808 808 1 790
c1 434 2 797 3 806 1 16 54 17 794 17 435 0 797 1 803 1 6 0 -374 385 -844
855 l-855 855 1142 0 1142 0 571 -570z"/>
</g>
</svg>
