{
  "Jobs": {
    "version": "0.0.1",
    "name": "Jobs extension",
    "folder": "Jobs",
    "type": "Community",
    "description": "Adds jobs handling functionality to the CMS",
    "author": {
      "web": "www.pixelplant.ch",
      "name": "Radu Mogoş",
      "email": "radu.mogos@pixelplant.ch"
    },
    "dependencies": {
      "sys_backend": {
        "version": "0.0.1"
      }
    },
    "backend": {
      "mainMenu": {
        "extensionJobs": {
          "label": "backend.menu.jobs",
          "icon": "fa fa-fw fa-address-card-o",
          "position": 80,
          "items": {
            "showAll": {
              "label": "backend.menu.jobs.showAll",
              "icon": "fa fa-fw fa-bars",
              "path": "admin",
              "params": {"_extension": "Jobs", "_controller": "JobsBackend", "_action": "grid"}
            },
            "addNew": {
              "label": "backend.menu.jobs.createNew",
              "icon": "fa fa-fw fa-plus",
              "path": "admin",
              "params": {"_extension": "Jobs", "_controller": "JobsBackend", "_action": "create"}
            },
            "diviter": {
              "type": "divider"
            },
            "showAllApplicants": {
              "label": "backend.menu.jobs.showAllApplicants",
              "icon": "fa fa-fw fa-address-card",
              "path": "admin",
              "params": {"_extension": "Jobs", "_controller": "JobsBackend", "_action": "showApplicants"}
            }
          }
        }
      }
    },
    "elements": {
      "plugin": {
        "jobs": {
          "label": "plugin.jobs.title",
          "description": "plugin.jobs.description",
          "icon": "Icons/jobs.png",
          "template": "show",
          "templates": {
            "Extensions/Community/Jobs/Resources/Private/Frontend/Templates/Index/show.template.php": "show",
            "Extensions/Community/ThemeAtlas/Resources/Private/Frontend/Templates/News/show.template.php": "atlas"
          },
          "frontend": {
            "controller": "Index",
            "action": "show"
          },
          "backend": {
            "controller": "Preview",
            "action": "backendPreview"
          }
        }
      }
    }
  }
}