<?xml version="1.0" encoding="utf-8"?>
<!-- Generator: Adobe Illustrator 21.0.0, SVG Export Plug-In . SVG Version: 6.00 Build 0)  -->
<svg version="1.1" id="Layer_1" xmlns="http://www.w3.org/2000/svg" xmlns:xlink="http://www.w3.org/1999/xlink" x="0px" y="0px"
	 viewBox="0 0 150 150" style="enable-background:new 0 0 150 150;" xml:space="preserve">
<style type="text/css">
	.st0{fill:#FF0000;}
	.st1{fill:#FFFFFF;}
</style>
<g>
	<g>
		<path d="M83.4,101.3c-5,8-11.3,18-21.9,18.3c-8.3,0.2-12-7.6-18.9-10.7c-12.7-5.7-21.1,10.9-33.4,9.6c0.4,0.8,0.9,1.5,1.3,2.3
			c5.8-8.1,11.6-16.3,17.3-24.4c2.7-3.8,5.4-7.6,8.1-11.4c2.5-3.6,5.4-9.7,9-12.3c4.3-3.1,8-0.2,12.5-0.4c3.3-0.1,6.3-1.6,9.1-3.1
			c8.5-4.4,17-8.8,25.9-12.4c3.7-1.5,7.6-3.3,11.6-4.2c3.8-0.8,6.4,0.7,8.8,3.5c0.9,1.1,1.8,2.1,2.9,2.9c5.6,4.1,13.4,3.3,18.4,8.4
			c5.4,5.4,5.7,14.4,5.6,21.6c0,2.8-0.4,6.1-4,6c-1.7,0-3.5-0.6-5.2-0.8c-3.3-0.4-6.6-0.4-9.6,1c-2.4,1.1-4.5,2.9-5.4,5.4
			c-1.6,3.9,0.7,10.6-3.2,13.3c-3.7,2.5-9.6-1-12.8-3c-4.7-3-9.3-6.2-14-9.3c-1.6-1.1-3.1,1.5-1.5,2.6c7,4.6,14.8,11.9,23.3,13.2
			c8,1.2,10.1-4.8,10.3-11.4c0.4-8.4,7.2-9.6,14.2-8.5c2.9,0.4,6.6,1.9,9-0.5c2-2,1.8-5.3,1.8-7.9c0.1-4.1-0.1-8.1-0.9-12.1
			c-1.4-6.9-5-12.8-11.7-15.6c-3.8-1.6-8.2-1.9-11.8-4.1c-3.8-2.3-5.1-6.9-9.7-7.8c-3.7-0.7-7.6,1-10.9,2.2c-5,1.8-9.9,3.9-14.8,6
			c-4.7,2.1-9.4,4.4-14,6.9c-2.6,1.4-5.2,3.1-8,4c-3.5,1.2-6.2,0.3-9.6-0.5c-3.7-0.8-6.4,0.3-9,3c-3.9,4.1-6.9,9.4-10.1,14
			C24.1,96.5,16,107.9,8,119.3c-0.7,1,0.3,2.1,1.3,2.3c6.8,0.8,12.2-3.3,17.6-6.7c3.2-2,6.7-4.1,10.6-4.1c5.2,0.1,8.7,4.4,12.4,7.4
			c5.5,4.5,11.8,5.7,18.5,3c8.2-3.3,13.2-11.1,17.7-18.3C87,101.2,84.4,99.7,83.4,101.3L83.4,101.3z"/>
	</g>
</g>
<g>
	<path class="st0" d="M61.7,87.5c-3.1-6.7-6.1-13.3-9.2-20C49.1,60,45.6,52.3,45.1,44c-0.2-3.4,0.1-7,2-9.8c3-4.6,9.1-6,14.5-7
		c3.2-0.6,6.8-1.1,9.5,0.6c3.5,2.2,4.2,6.9,4.3,11.1c0.1,4.7-0.3,9.7-2.9,13.6c-0.8,1.1-1.7,2.1-2.5,3.2c-5.7,7.7-4.3,18.9-9.4,27.1
		"/>
	<g>
		<path d="M63,86.7c-5-11-11.1-22-14.7-33.6c-1.6-5.2-3.1-11.9-0.5-17c2.6-5.2,8.9-6.5,14.2-7.5c4.4-0.8,8.9-0.9,10.9,3.9
			c1,2.4,1.1,5.3,1,7.9c-0.1,6.1-1.8,9.6-5.2,14.4c-5.6,8.1-4.6,18.6-9.4,27.1c-1,1.7,1.6,3.2,2.6,1.5c3.3-5.8,4-12.2,5.6-18.5
			c1.8-6.7,7.2-11.1,8.7-17.8c1.1-4.9,1.3-11.3-0.6-16c-2.2-5.3-7.1-6.5-12.4-5.8C52.2,26.9,42.8,31.5,43.6,44
			c0.4,6.8,2.8,13.2,5.5,19.3c3.6,8.3,7.6,16.6,11.4,24.8C61.2,90,63.8,88.4,63,86.7L63,86.7z"/>
	</g>
</g>
<g>
	<path class="st1" d="M60.4,44.5c1-1.4-0.3-3.6-2.1-3.6c-1.7-0.1-3.2,1.4-3.7,3.1c-0.8,2.7,1,6,3.8,6.3c2.8,0.4,5.4-3,4-5.4"/>
	<g>
		<path d="M61.7,45.2c1.7-2.8-0.9-6.3-4.1-5.8c-3.5,0.5-5.3,4.5-4.4,7.7c0.8,3,3.8,5.4,7,4.5c3.2-0.9,5-4.5,3.5-7.5
			c-0.8-1.7-3.4-0.2-2.6,1.5c0.6,1.2-0.5,2.8-1.7,3.1c-1.2,0.3-2.3-0.5-2.9-1.5c-0.6-1.1-0.7-2.4-0.2-3.5c0.3-0.6,1.1-1.6,2-1.4
			c0.6,0.1,1.1,0.8,0.7,1.4C58.1,45.4,60.7,46.9,61.7,45.2L61.7,45.2z"/>
	</g>
</g>
<g>
</g>
<g>
</g>
<g>
</g>
<g>
</g>
<g>
</g>
<g>
</g>
<g>
</g>
<g>
</g>
<g>
</g>
<g>
</g>
<g>
</g>
<g>
</g>
<g>
</g>
<g>
</g>
<g>
</g>
</svg>
