<?xml version="1.0" encoding="utf-8"?>
<!-- Generator: Adobe Illustrator 21.0.0, SVG Export Plug-In . SVG Version: 6.00 Build 0)  -->
<svg version="1.1" id="Layer_1" xmlns="http://www.w3.org/2000/svg" xmlns:xlink="http://www.w3.org/1999/xlink" x="0px" y="0px"
	 viewBox="0 0 150 150" style="enable-background:new 0 0 150 150;" xml:space="preserve">
<style type="text/css">
	.st0{fill:#CCCCCC;stroke:#000000;stroke-width:5;stroke-miterlimit:10;}
	.st1{fill:none;stroke:#000000;stroke-width:5;stroke-miterlimit:10;}
	.st2{fill:#FFFFFF;stroke:#231F20;stroke-width:3;stroke-linecap:round;stroke-miterlimit:10;}
	.st3{fill:none;stroke:#231F20;stroke-width:5;stroke-miterlimit:10;}
	.st4{fill:none;stroke:#FF0000;stroke-width:5;stroke-miterlimit:10;}
	.st5{fill:#FF0000;stroke:#231F20;stroke-width:2;stroke-linecap:round;stroke-miterlimit:10;}
</style>
<rect x="6.5" y="24.5" class="st0" width="64" height="29"/>
<rect x="80.5" y="24.5" class="st1" width="64" height="29"/>
<line class="st1" x1="144.5" y1="53.5" x2="80.5" y2="24.5"/>
<line class="st1" x1="80.5" y1="52.5" x2="144.5" y2="24.5"/>
<polygon class="st2" points="46.6,32.1 62.1,32.1 54.3,45.5 "/>
<line class="st3" x1="80.5" y1="70.5" x2="120.5" y2="70.5"/>
<line class="st3" x1="127.5" y1="70.5" x2="144.5" y2="70.5"/>
<line class="st3" x1="80.5" y1="81.5" x2="132.5" y2="81.5"/>
<line class="st3" x1="139.5" y1="81.5" x2="144.5" y2="81.5"/>
<line class="st3" x1="80.5" y1="92.5" x2="98.5" y2="92.5"/>
<line class="st3" x1="106.5" y1="92.5" x2="127.5" y2="92.5"/>
<line class="st3" x1="136.5" y1="92.5" x2="144.5" y2="92.5"/>
<line class="st4" x1="100.5" y1="117.5" x2="125.5" y2="117.5"/>
<g>
	<g>
		<path d="M46.5,94.9c-1.5,2.2-3,4.9-5.5,6.2c-4.3,2.1-6.3-1.4-7.8-4.7c-0.8-1.9-1.8-3.1-3.9-3.6c-3.2-0.7-7.1,1-10.1,2
			c-4.1,1.4-8,3.3-11.7,5.4c0.7,0.2,1.4,0.4,2.1,0.5c-1.3-2.5,0.6-6.2,2.3-7.8c0.7-0.7,1.5-1.3,2.2-1.9c1.4-1.2,2.8-2.4,3.9-3.9
			c2.3-3,4.6-11.4,8.2-12.3c2.6-0.6,4,2.6,7.4,1.6c2.4-0.7,4.7-2.7,6.8-4c2.8-1.7,5.6-3.4,8.4-5.1c-0.6-0.1-1.2-0.2-1.8-0.2
			c1.2,1,1,2.8,2.4,3.7c1,0.6,2,0.4,3.1,0.4c2.4,0,4.4-0.6,6.8,0.1c2.2,0.6,4.3,1.8,6.4,2.8c4.4,2.1,4.2,3.5,3.1,8.2
			c-0.3,1.4-0.5,3.2-1.1,4.5c-1,2.3-1,2-3.3,3.1c-1.3,0.6-2.3,0.9-3.2,2.2c-1,1.4-1.3,3.1-1.6,4.8c-0.4,2.2-0.2,8.1-5.9,4.2
			c-1.3-0.9-2-3.9-2.4-5.4c-0.5-1.8-3.4-1.1-2.9,0.8c1.3,4.4,5.5,12,11.2,8c2.1-1.5,2.5-4.1,2.9-6.5c0.2-1.2,0.2-3.1,1-4
			c2.2-2.7,2.2-0.6,3.8-1.3c1.1-0.5,1.6-0.5,2.4-1.7c0.9-1.4,1-3.6,1.4-5.2c0.6-2.5,1.6-5.2,1.8-7.8c0.2-2.5-0.5-3.6-2.6-4.9
			C66.9,71,62,68.6,57.9,68c-1.7-0.2-3.5,0.4-5.1,0.2c-2.3-0.3-2.2-2-3.7-3.2c-0.5-0.4-1.2-0.6-1.8-0.2c-3.4,2-6.7,4.1-10.1,6.1
			c-1.8,1.1-4.4,3.1-6.7,2.1c-0.7-0.3-1.2-1.3-2-1.7c-3.7-1.9-5.7,1.5-7.4,4.4c-1.6,2.6-2.7,5.5-4.4,8.1c-1.9,3-4.5,4.7-7,7.1
			c-3.3,3.1-5,7.2-2.8,11.4c0.4,0.7,1.4,0.9,2.1,0.5c4.5-2.6,10.8-6.4,16.1-6.6c2.1-0.1,3.9,0.1,5.5,2.1c0.4,0.6,0.5,1.8,0.9,2.4
			c0.5,1,1.1,2,2,2.7c6.2,4.7,12.4-2.2,15.5-7C50.2,94.8,47.6,93.3,46.5,94.9L46.5,94.9z"/>
	</g>
</g>
<circle class="st5" cx="54.1" cy="81.6" r="3.4"/>
<g>
</g>
<g>
</g>
<g>
</g>
<g>
</g>
<g>
</g>
<g>
</g>
<g>
</g>
<g>
</g>
<g>
</g>
<g>
</g>
<g>
</g>
<g>
</g>
<g>
</g>
<g>
</g>
<g>
</g>
</svg>
