<?xml version="1.0" encoding="utf-8"?>
<!-- Generator: Adobe Illustrator 21.0.0, SVG Export Plug-In . SVG Version: 6.00 Build 0)  -->
<svg version="1.1" id="Layer_1" xmlns="http://www.w3.org/2000/svg" xmlns:xlink="http://www.w3.org/1999/xlink" x="0px" y="0px"
	 viewBox="0 0 150 150" style="enable-background:new 0 0 150 150;" xml:space="preserve">
<style type="text/css">
	.st0{fill:#FFFFFF;stroke:#000000;stroke-width:5;stroke-miterlimit:10;}
	.st1{fill:none;stroke:#000000;stroke-width:5;stroke-miterlimit:10;}
	.st2{fill:#FF0000;}
</style>
<rect x="12.5" y="39.5" class="st0" width="48" height="59"/>
<line class="st1" x1="75.5" y1="41.5" x2="141.5" y2="41.5"/>
<line class="st1" x1="75.5" y1="59.5" x2="104.5" y2="59.5"/>
<line class="st1" x1="140.5" y1="59.5" x2="114.5" y2="59.5"/>
<line class="st1" x1="75.5" y1="75.5" x2="140.5" y2="75.5"/>
<line class="st1" x1="75.5" y1="90.5" x2="108.5" y2="90.5"/>
<line class="st1" x1="116.5" y1="90.5" x2="140.5" y2="90.5"/>
<g>
	<path class="st2" d="M22.1,96.6c-0.9-5.9,2.4-11.8,7.2-15.4c0.5-0.4,1.1-0.8,1.5-1.4c1.2-1.9-0.5-4.2-1.7-6
		c-2.6-3.6-4.1-8-4.3-12.5c0-0.9,0-1.8,0.4-2.6c0.4-0.7,1-1.2,1.7-1.6c3.9-2.5,8.8-3,13.4-2.9c1.9,0,3.9,0.2,5.5,1.2
		c2.7,1.7,3.5,5.1,4,8.2c0.4,2.4,0.6,5.1-0.6,7.2c-1.7,2.8-5.3,3.6-8.2,5.1c-0.4,0.2-0.9,0.5-1.1,0.9c-0.4,0.8,0.1,1.7,0.6,2.4
		c2.7,3.3,7,4.5,10.8,6.3c0.9,0.4,1.9,0.9,2.4,1.8c1.6,2.4-1,5.6-0.3,8.4"/>
	<g>
		<path d="M23.6,96.6C23,90.5,26,86.2,30.3,82.3c2.2-2,2.8-3.8,1.6-6.7c-2-4.7-7.7-10.1-5-15.7c2.2-4.5,15-6.1,18.9-2.6
			c1.9,1.7,2.6,5.6,2.7,8c0.2,4.5-1.8,6.3-5.6,8.1c-2.2,1-5.2,2-4.4,5c0.8,3.1,5.1,5.1,7.6,6.3c2.7,1.2,6,2,6.6,5.5
			c0.3,1.5-0.9,3.7-0.7,5.4c0.2,1.9,3.2,1.9,3,0c-0.5-5.3,2.7-8.3-2.8-11.5c-2.4-1.4-5.3-2-7.7-3.6c-5-3.3,1.1-4.7,3.6-6.5
			c6.8-5,3.5-19.2-4.6-21c-4.5-1-10.4-0.3-14.7,1.4c-5.2,2.2-6.2,5.2-5.1,10.6c0.6,2.9,1.6,5.6,3.1,8.1c1,1.7,3.4,4,2.2,6.3
			c-0.4,0.8-2.4,2-3,2.6c-3.8,3.9-5.9,9-5.4,14.5C20.7,98.5,23.7,98.6,23.6,96.6L23.6,96.6z"/>
	</g>
</g>
<g>
</g>
<g>
</g>
<g>
</g>
<g>
</g>
<g>
</g>
<g>
</g>
<g>
</g>
<g>
</g>
<g>
</g>
<g>
</g>
<g>
</g>
<g>
</g>
<g>
</g>
<g>
</g>
<g>
</g>
</svg>
