<?xml version="1.0" encoding="utf-8"?>
<!-- Generator: Adobe Illustrator 21.0.0, SVG Export Plug-In . SVG Version: 6.00 Build 0)  -->
<svg version="1.1" id="Layer_1" xmlns="http://www.w3.org/2000/svg" xmlns:xlink="http://www.w3.org/1999/xlink" x="0px" y="0px"
	 viewBox="0 0 150 150" style="enable-background:new 0 0 150 150;" xml:space="preserve">
<style type="text/css">
	.st0{fill:#FFFFFF;stroke:#000000;stroke-width:5;stroke-miterlimit:10;}
	.st1{fill:none;stroke:#000000;stroke-width:5;stroke-miterlimit:10;}
	.st2{fill:#FF0000;stroke:#000000;stroke-width:5;stroke-miterlimit:10;}
</style>
<rect x="52.5" y="39.5" class="st0" width="48" height="59"/>
<g>
	<g>
		<path d="M120.1,55.8c3.3,4.9,7.4,9.2,12.4,12.4c0.2,0.1,3.8,1.9,3.9,1.9c0.1,0.3-3.6,3-4.2,3.5c-3.2,2.7-6.5,5.5-9.7,8.2
			c-1.5,1.2,0.7,3.4,2.1,2.1c3.7-3.1,7.4-6.3,11.1-9.4c1.3-1.1,4.5-2.8,3.9-5.1c-0.6-2.2-5.2-3.6-6.8-4.7c-4-2.8-7.3-6.4-10-10.4
			C121.6,52.7,119,54.2,120.1,55.8L120.1,55.8z"/>
	</g>
</g>
<g>
	<g>
		<path d="M23.5,52.1c-1.2,4.6-4,8.1-6.9,11.8c-1.5,1.8-5.5,5.3-5.4,7.9c0.1,2.3,2.5,2.9,4.2,3.7c4.4,2.3,8.2,5.5,11.4,9.3
			c1.2,1.5,3.4-0.7,2.1-2.1c-2.1-2.6-4.5-4.9-7.2-6.8c-1.5-1.1-3.1-2.1-4.8-2.9c-2.9-1.5-2.2-1.9-0.1-4.6c3.8-4.8,7.9-9.3,9.6-15.4
			C26.9,51,24,50.2,23.5,52.1L23.5,52.1z"/>
	</g>
</g>
<line class="st1" x1="50" y1="109.5" x2="102.5" y2="109.5"/>
<line class="st1" x1="49.5" y1="120.5" x2="70.5" y2="120.5"/>
<line class="st1" x1="78.5" y1="120.5" x2="102.5" y2="120.5"/>
<rect x="52.5" y="39.5" class="st2" width="48" height="27"/>
<g>
</g>
<g>
</g>
<g>
</g>
<g>
</g>
<g>
</g>
<g>
</g>
<g>
</g>
<g>
</g>
<g>
</g>
<g>
</g>
<g>
</g>
<g>
</g>
<g>
</g>
<g>
</g>
<g>
</g>
</svg>
